/home/perm/XMas/christmas-api-old/christmas-random-api/src/main/java/com/xplink/api/xmas/service/RandomService.java
/home/perm/XMas/christmas-api-old/christmas-random-api/src/main/java/com/xplink/api/xmas/service/EventService.java
/home/perm/XMas/christmas-api-old/christmas-random-api/src/main/java/com/xplink/api/rest/constant/ErrorConstant.java
/home/perm/XMas/christmas-api-old/christmas-random-api/src/main/java/com/xplink/api/xmas/dao/vo/PersistentLogin.java
/home/perm/XMas/christmas-api-old/christmas-random-api/src/main/java/com/xplink/api/xmas/service/EmailService.java
/home/perm/XMas/christmas-api-old/christmas-random-api/src/main/java/com/xplink/api/dao/AbstractDao.java
/home/perm/XMas/christmas-api-old/christmas-random-api/src/main/java/com/xplink/api/xmas/controller/EventController.java
/home/perm/XMas/christmas-api-old/christmas-random-api/src/main/java/com/xplink/api/xmas/dao/rowmapper/UserRowMapper.java
/home/perm/XMas/christmas-api-old/christmas-random-api/src/main/java/com/xplink/api/rest/controller/vo/GenericRestResponse.java
/home/perm/XMas/christmas-api-old/christmas-random-api/src/main/java/com/xplink/api/xmas/controller/vo/GroupInfo.java
/home/perm/XMas/christmas-api-old/christmas-random-api/src/main/java/com/xplink/api/xmas/service/UserService.java
/home/perm/XMas/christmas-api-old/christmas-random-api/src/main/java/com/xplink/api/xmas/dao/rowmapper/PlayersRowMapper.java
/home/perm/XMas/christmas-api-old/christmas-random-api/src/main/java/com/xplink/api/xmas/service/concurrent/task/MailSenderTask.java
/home/perm/XMas/christmas-api-old/christmas-random-api/src/main/java/com/xplink/api/xmas/dao/UserDao.java
/home/perm/XMas/christmas-api-old/christmas-random-api/src/main/java/com/xplink/api/xmas/dao/rowmapper/GroupRowMapper.java
/home/perm/XMas/christmas-api-old/christmas-random-api/src/main/java/com/xplink/api/config/sql/SQLPropertyFileConfig.java
/home/perm/XMas/christmas-api-old/christmas-random-api/src/main/java/com/xplink/api/xmas/springboot/Application.java
/home/perm/XMas/christmas-api-old/christmas-random-api/src/main/java/com/xplink/api/xmas/dao/KeywordDao.java
/home/perm/XMas/christmas-api-old/christmas-random-api/src/main/java/com/xplink/api/config/AppConfiguration.java
/home/perm/XMas/christmas-api-old/christmas-random-api/src/main/java/com/xplink/api/log/vo/TransactionLogVo.java
/home/perm/XMas/christmas-api-old/christmas-random-api/src/main/java/com/xplink/api/xmas/service/KeywordService.java
/home/perm/XMas/christmas-api-old/christmas-random-api/src/main/java/com/xplink/api/xmas/controller/EmailController.java
/home/perm/XMas/christmas-api-old/christmas-random-api/src/main/java/com/xplink/api/log/AbstractLogManager.java
/home/perm/XMas/christmas-api-old/christmas-random-api/src/main/java/com/xplink/api/xmas/controller/vo/DelEventInfo.java
/home/perm/XMas/christmas-api-old/christmas-random-api/src/main/java/com/xplink/api/xmas/controller/vo/EmailInfo.java
/home/perm/XMas/christmas-api-old/christmas-random-api/src/main/java/com/xplink/api/xmas/util/KeywordRandomUtil.java
/home/perm/XMas/christmas-api-old/christmas-random-api/src/main/java/com/xplink/api/config/security/AuthorizationServerConfiguration.java
/home/perm/XMas/christmas-api-old/christmas-random-api/src/main/java/com/xplink/api/rest/controller/vo/RestHeaderRequest.java
/home/perm/XMas/christmas-api-old/christmas-random-api/src/main/java/com/xplink/api/xmas/controller/vo/AuthorizeInfo.java
/home/perm/XMas/christmas-api-old/christmas-random-api/src/main/java/com/xplink/api/xmas/controller/vo/EventInfo.java
/home/perm/XMas/christmas-api-old/christmas-random-api/src/main/java/com/xplink/api/xmas/controller/vo/PlayersInfo.java
/home/perm/XMas/christmas-api-old/christmas-random-api/src/main/java/com/xplink/api/xmas/controller/vo/PlayerAllResponse.java
/home/perm/XMas/christmas-api-old/christmas-random-api/src/main/java/com/xplink/api/xmas/controller/vo/PlayerPlyResponseParams.java
/home/perm/XMas/christmas-api-old/christmas-random-api/src/main/java/com/xplink/api/xmas/dao/EventDao.java
/home/perm/XMas/christmas-api-old/christmas-random-api/src/main/java/com/xplink/api/xmas/dao/GroupDao.java
/home/perm/XMas/christmas-api-old/christmas-random-api/src/main/java/com/xplink/api/xmas/controller/vo/RandomInfo.java
/home/perm/XMas/christmas-api-old/christmas-random-api/src/main/java/com/xplink/api/xmas/dao/rowmapper/EventRowMapper.java
/home/perm/XMas/christmas-api-old/christmas-random-api/src/main/java/com/xplink/api/rest/constant/SQLConstant.java
/home/perm/XMas/christmas-api-old/christmas-random-api/src/main/java/com/xplink/api/xmas/dao/TokenRepositoryDao.java
/home/perm/XMas/christmas-api-old/christmas-random-api/src/main/java/com/xplink/api/xmas/service/GroupService.java
/home/perm/XMas/christmas-api-old/christmas-random-api/src/main/java/com/xplink/api/xmas/service/CustomUserDetailsService.java
/home/perm/XMas/christmas-api-old/christmas-random-api/src/main/java/com/xplink/api/xmas/controller/vo/GroupAllReqs.java
/home/perm/XMas/christmas-api-old/christmas-random-api/src/main/java/com/xplink/api/xmas/controller/RandomController.java
/home/perm/XMas/christmas-api-old/christmas-random-api/src/main/java/com/xplink/api/config/security/OAuth2SecurityConfiguration.java
/home/perm/XMas/christmas-api-old/christmas-random-api/src/main/java/com/xplink/api/xmas/controller/AuthorizeController.java
/home/perm/XMas/christmas-api-old/christmas-random-api/src/main/java/com/xplink/api/xmas/controller/GroupController.java
/home/perm/XMas/christmas-api-old/christmas-random-api/src/main/java/com/xplink/api/xmas/dao/vo/Event.java
/home/perm/XMas/christmas-api-old/christmas-random-api/src/main/java/com/xplink/api/xmas/dao/vo/Group.java
/home/perm/XMas/christmas-api-old/christmas-random-api/src/main/java/com/xplink/api/config/security/SecurityConfiguration.java
/home/perm/XMas/christmas-api-old/christmas-random-api/src/main/java/com/xplink/api/xmas/controller/vo/PlayerReqsResponseParams.java
/home/perm/XMas/christmas-api-old/christmas-random-api/src/main/java/com/xplink/api/rest/controller/AbstractRestController.java
/home/perm/XMas/christmas-api-old/christmas-random-api/src/main/java/com/xplink/api/xmas/controller/vo/Captcha.java
/home/perm/XMas/christmas-api-old/christmas-random-api/src/main/java/com/xplink/api/xmas/dao/vo/User.java
/home/perm/XMas/christmas-api-old/christmas-random-api/src/main/java/com/xplink/api/config/security/ResourceServerConfiguration.java
/home/perm/XMas/christmas-api-old/christmas-random-api/src/main/java/com/xplink/api/xmas/dao/rowmapper/GroupCountRowMapper.java
/home/perm/XMas/christmas-api-old/christmas-random-api/src/main/java/com/xplink/api/xmas/controller/vo/CaptchaInfo.java
/home/perm/XMas/christmas-api-old/christmas-random-api/src/main/java/com/xplink/api/xmas/controller/vo/UserInfo.java
/home/perm/XMas/christmas-api-old/christmas-random-api/src/main/java/com/xplink/api/rest/constant/Constant.java
/home/perm/XMas/christmas-api-old/christmas-random-api/src/main/java/com/xplink/api/xmas/dao/AuthorizeDao.java
/home/perm/XMas/christmas-api-old/christmas-random-api/src/main/java/com/xplink/api/config/security/MethodSecurityConfig.java
/home/perm/XMas/christmas-api-old/christmas-random-api/src/main/java/com/xplink/api/xmas/controller/vo/GroupAllRespParam.java
/home/perm/XMas/christmas-api-old/christmas-random-api/src/main/java/com/xplink/api/exception/ServiceException.java
/home/perm/XMas/christmas-api-old/christmas-random-api/src/main/java/com/xplink/api/xmas/dao/rowmapper/GroupAllRowMapper.java
/home/perm/XMas/christmas-api-old/christmas-random-api/src/main/java/com/xplink/api/xmas/dao/rowmapper/PersistentLoginRowMapper.java
/home/perm/XMas/christmas-api-old/christmas-random-api/src/main/java/com/xplink/api/xmas/controller/vo/KeywordInfo.java
/home/perm/XMas/christmas-api-old/christmas-random-api/src/main/java/com/xplink/api/xmas/captcha/CaptchaRequest.java
/home/perm/XMas/christmas-api-old/christmas-random-api/src/main/java/com/xplink/api/xmas/service/AuthorizeService.java
/home/perm/XMas/christmas-api-old/christmas-random-api/src/main/java/com/xplink/api/xmas/controller/UserController.java
